…
**Q: How many rows are in our data now?**  


# Selecting Data  

Last week we learned that we could select columns using `df$col_name` or columns and rows with syntax like `df[i,j]`. But the `dplyr` package has some functions that are much more powerful for doing this, `select` and `filter`.  


```r
# Selecting Columns 
timber_df |> select(year, county)
```

```
## # A tibble: 20,880 × 2
##     year county
##    <dbl> <chr> 
##  1  1962 BAKER 
##  2  1962 BAKER 
##  3  1962 BAKER 
##  4  1962 BAKER 
##  5  1962 BAKER 
##  6  1962 BAKER 
##  7  1962 BAKER 
##  8  1962 BAKER 
##  9  1962 BAKER 
## 10  1962 BAKER 
## # … with 20,870 more rows
```

```r
# Filtering rows using logical expressions
timber_df |> filter(year == 2019 & land_owner == "industry")
```

```
## # A tibble: 36 × 4
##     year county     land_owner timber_volume
##    <dbl> <chr>      <chr>              <dbl>
##  1  2019 BENTON     industry           71926
##  2  2019 CLACKAMAS  industry           74338
##  3  2019 CLATSOP    industry          135899
##  4  2019 COLUMBIA   industry          116311
##  5  2019 COOS       industry          116909
##  6  2019 CURRY      industry           58282
##  7  2019 DOUGLAS    industry          547271
##  8  2019 HOOD RIVER industry            9649
##  9  2019 JACKSON    industry           54263
## 10  2019 JOSEPHINE  industry           15494
## # … with 26 more rows
```
…
# Manipulating Data 

We can sort data using `dplyr::arrange()`. Lets see which year had the highest total timber harvest on public land in Lane County. By default, `arrange` sorts numbers in ascending order, so we can tell it to sort in descending order using `desc()`.


```r
# Years with most harvest on public land 
timber_df |>
  filter(county == "LANE" & land_owner == "total_public") |>
  arrange(desc(timber_volume))
```

```
## # A tibble: 58 × 4
##     year county land_owner   timber_volume
##    <dbl> <chr>  <chr>                <dbl>
##  1  1972 LANE   total_public       1086607
##  2  1965 LANE   total_public       1071688
##  3  1964 LANE   total_public       1064266
##  4  1973 LANE   total_public       1058080
##  5  1963 LANE   total_public        987009
##  6  1969 LANE   total_public        964206
##  7  1968 LANE   total_public        927865
##  8  1962 LANE   total_public        904893
##  9  1988 LANE   total_public        900308
## 10  1966 LANE   total_public        857397
## # … with 48 more rows
```
…
```
## # A tibble: 58 × 6
##     year tot_harvest avg_harvest min_harvest max_harvest num_rows
##    <dbl>       <dbl>       <dbl>       <dbl>       <dbl>    <int>
##  1  2019      143372       3983.           0       31656       36
##  2  2018      158126       4392.           0       34574       36
##  3  2017      160390       4455.           0       35693       36
##  4  2016      182462       5068.           0       40424       36
##  5  2015      193275       5369.           0       45504       36
##  6  2014      208826       5801.           0       45162       36
##  7  2013      165116       4587.           0       37232       36
##  8  2012      148216       4117.           0       42048       36
##  9  2011      164954       4582.           0       48315       36
## 10  2010      132857       3690.           0       39897       36
## # … with 48 more rows
```
…
