…
# Look at the results 
ts_df
```

```
## # A tibble: 100 × 6
##     time      y  y_lag     x x_lag        u
##    <int>  <dbl>  <dbl> <dbl> <dbl>    <dbl>
##  1     1 60     NA     12.8  NA     -0.0915
##  2     2 34.8   60     10.3  12.8    0.781 
##  3     3 22.0   34.8    9.54 10.3   -0.337 
##  4     4 26.7   22.0    4.42  9.54   9.60  
##  5     5 31.2   26.7    8.71  4.42  10.8   
##  6     6  3.16  31.2   11.5   8.71 -17.6   
##  7     7  8.83   3.16   7.00 11.5    2.25  
##  8     8  8.97   8.83  11.1   7.00  -1.27  
##  9     9  0.787  8.97   5.84 11.1   -9.03  
## 10    10  3.00   0.787 13.1   5.84  -3.26  
## # … with 90 more rows
```
…
